…
Check the import

    #> `summarise()` has grouped output by 'allocation_month'. You can override using
    #> the `.groups` argument.
    #> # A tibble: 24 × 3
    #> # Groups:   allocation_month [12]
    #>    allocation_month product_type     GwP
    #>    <date>           <chr>          <dbl>
    #>  1 2016-01-01       Risk         405489.
    #>  2 2016-01-01       Savings      639033.
    #>  3 2016-02-01       Risk         447771.
    #>  4 2016-02-01       Savings      802122.
    #>  5 2016-03-01       Risk         426875.
    #>  6 2016-03-01       Savings      727915.
    #>  7 2016-04-01       Risk         442639.
    #>  8 2016-04-01       Savings      780812.
    #>  9 2016-05-01       Risk         521731.
    #> 10 2016-05-01       Savings      942688.
    #> # ℹ 14 more rows
…
